Twitter treasures #rstats | Hanne Oberman
…
Source: https://twitter.com/n_a_gilbert/status/1259866258708840452?s=20

Comment out any step in a pipeline

mtcars %>% 
  # perform some wrangling
  filter(cyl > 4) %>% 
  group_by(cyl) %>% 
  # comment out the last line
    # summarise(mean_wt = mean(wt)) %>% 
  # no problem with identity()
  identity()

## # A tibble: 21 x 11
## # Groups:   cyl [2]
##      mpg   cyl  disp    hp  drat    wt  qsec    vs    am  gear  carb
##    <dbl> <dbl> <dbl> <dbl> <dbl> <dbl> <dbl> <dbl> <dbl> <dbl> <dbl>
##  1  21       6  160    110  3.9   2.62  16.5     0     1     4     4
##  2  21       6  160    110  3.9   2.88  17.0     0     1     4     4
##  3  21.4     6  258    110  3.08  3.22  19.4     1     0     3     1
##  4  18.7     8  360    175  3.15  3.44  17.0     0     0     3     2
##  5  18.1     6  225    105  2.76  3.46  20.2     1     0     3     1
##  6  14.3     8  360    245  3.21  3.57  15.8     0     0     3     4
##  7  19.2     6  168.   123  3.92  3.44  18.3     1     0     4     4
##  8  17.8     6  168.   123  3.92  3.44  18.9     1     0     4     4
##  9  16.4     8  276.   180  3.07  4.07  17.4     0     0     3     3
## 10  17.3     8  276.   180  3.07  3.73  17.6     0     0     3     3
## # ... with 11 more rows
…
